{
    "_links": {
        "city:admin1_division": {
            "href": "https://api.teleport.org/api/countries/iso_alpha2:UA/admin1_divisions/geonames:12/",
            "name": "Kyiv City"
        },
        "city:alternate-names": {
            "href": "https://api.teleport.org/api/cities/geonameid:703448/alternate_names/"
        },
        "city:country": {
            "href": "https://api.teleport.org/api/countries/iso_alpha2:UA/",
            "name": "Ukraine"
        },
        "city:timezone": {
            "href": "https://api.teleport.org/api/timezones/iana:Europe%2FKiev/",
            "name": "Europe/Kiev"
        },
        "city:urban_area": {
            "href": "https://api.teleport.org/api/urban_areas/slug:kiev/",
            "name": "Kiev"
        },
        "curies": [
            {
                "href": "https://developers.teleport.org/api/resources/Location/#!/relations/{rel}/",
                "name": "location",
                "templated": true
            },
            {
                "href": "https://developers.teleport.org/api/resources/City/#!/relations/{rel}/",
                "name": "city",
                "templated": true
            },
            {
                "href": "https://developers.teleport.org/api/resources/UrbanArea/#!/relations/{rel}/",
                "name": "ua",
                "templated": true
            },
            {
                "href": "https://developers.teleport.org/api/resources/Country/#!/relations/{rel}/",
                "name": "country",
                "templated": true
            },
            {
                "href": "https://developers.teleport.org/api/resources/Admin1Division/#!/relations/{rel}/",
                "name": "a1",
                "templated": true
            },
            {
                "href": "https://developers.teleport.org/api/resources/Timezone/#!/relations/{rel}/",
                "name": "tz",
                "templated": true
            }
        ],
        "self": {
            "href": "https://api.teleport.org/api/cities/geonameid:703448/"
        }
    },
    "full_name": "Kyiv, Kyiv City, Ukraine",
    "geoname_id": 703448,
    "location": {
        "geohash": "u8vxn8fz8n6fm6rbjzzm",
        "latlon": {
            "latitude": 50.45466,
            "longitude": 30.5238
        }
    },
    "name": "Kyiv",
    "population": 2797553
}