{
    "_links": {
        "city:admin1_division": {
            "href": "https://api.teleport.org/api/countries/iso_alpha2:UA/admin1_divisions/geonames:15/",
            "name": "Lviv"
        },
        "city:alternate-names": {
            "href": "https://api.teleport.org/api/cities/geonameid:702550/alternate_names/"
        },
        "city:country": {
            "href": "https://api.teleport.org/api/countries/iso_alpha2:UA/",
            "name": "Ukraine"
        },
        "city:timezone": {
            "href": "https://api.teleport.org/api/timezones/iana:Europe%2FKiev/",
            "name": "Europe/Kiev"
        },
        "city:urban_area": {
            "href": "https://api.teleport.org/api/urban_areas/slug:lviv/",
            "name": "Lviv"
        },
        "curies": [
            {
                "href": "https://developers.teleport.org/api/resources/Location/#!/relations/{rel}/",
                "name": "location",
                "templated": true
            },
            {
                "href": "https://developers.teleport.org/api/resources/City/#!/relations/{rel}/",
                "name": "city",
                "templated": true
            },
            {
                "href": "https://developers.teleport.org/api/resources/UrbanArea/#!/relations/{rel}/",
                "name": "ua",
                "templated": true
            },
            {
                "href": "https://developers.teleport.org/api/resources/Country/#!/relations/{rel}/",
                "name": "country",
                "templated": true
            },
            {
                "href": "https://developers.teleport.org/api/resources/Admin1Division/#!/relations/{rel}/",
                "name": "a1",
                "templated": true
            },
            {
                "href": "https://developers.teleport.org/api/resources/Timezone/#!/relations/{rel}/",
                "name": "tz",
                "templated": true
            }
        ],
        "self": {
            "href": "https://api.teleport.org/api/cities/geonameid:702550/"
        }
    },
    "full_name": "Lviv, Lviv, Ukraine",
    "geoname_id": 702550,
    "location": {
        "geohash": "u8c5d8v0yj4145h6bm1d",
        "latlon": {
            "latitude": 49.83826,
            "longitude": 24.02324
        }
    },
    "name": "Lviv",
    "population": 717803
}