{
    "_links": {
        "city:admin1_division": {
            "href": "https://api.teleport.org/api/countries/iso_alpha2:US/admin1_divisions/geonames:NY/",
            "name": "New York"
        },
        "city:alternate-names": {
            "href": "https://api.teleport.org/api/cities/geonameid:5128581/alternate_names/"
        },
        "city:country": {
            "href": "https://api.teleport.org/api/countries/iso_alpha2:US/",
            "name": "United States"
        },
        "city:timezone": {
            "href": "https://api.teleport.org/api/timezones/iana:America%2FNew_York/",
            "name": "America/New_York"
        },
        "city:urban_area": {
            "href": "https://api.teleport.org/api/urban_areas/slug:new-york/",
            "name": "New York"
        },
        "curies": [
            {
                "href": "https://developers.teleport.org/api/resources/Location/#!/relations/{rel}/",
                "name": "location",
                "templated": true
            },
            {
                "href": "https://developers.teleport.org/api/resources/City/#!/relations/{rel}/",
                "name": "city",
                "templated": true
            },
            {
                "href": "https://developers.teleport.org/api/resources/UrbanArea/#!/relations/{rel}/",
                "name": "ua",
                "templated": true
            },
            {
                "href": "https://developers.teleport.org/api/resources/Country/#!/relations/{rel}/",
                "name": "country",
                "templated": true
            },
            {
                "href": "https://developers.teleport.org/api/resources/Admin1Division/#!/relations/{rel}/",
                "name": "a1",
                "templated": true
            },
            {
                "href": "https://developers.teleport.org/api/resources/Timezone/#!/relations/{rel}/",
                "name": "tz",
                "templated": true
            }
        ],
        "self": {
            "href": "https://api.teleport.org/api/cities/geonameid:5128581/"
        }
    },
    "full_name": "New York City, New York, United States",
    "geoname_id": 5128581,
    "location": {
        "geohash": "dr5regy3zfj0tp84x062",
        "latlon": {
            "latitude": 40.71427,
            "longitude": -74.00597
        }
    },
    "name": "New York City",
    "population": 8175133
}