[
    null,
    null,
    {
        "id": "2",
        "studentId": "2",
        "teacherId": "3",
        "mark": "9",
        "date": "Wed Sep 26 2018 03:00:00 GMT+0300 (EEST)",
        "comment": "I think you cheated, next time i will wathing you ;(",
        "type": "Test"
    },
    {
        "id": "3",
        "studentId": "2",
        "teacherId": "3",
        "mark": "5",
        "date": "Sat Sep 15 2018 00:00:00 GMT+0300 (EEST)",
        "comment": "Ayayay",
        "type": "Exam"
    },
    {
        "id": "4",
        "studentId": "2",
        "teacherId": "4",
        "mark": "6",
        "date": "Fri Sep 07 2018 03:00:00 GMT+0300 (EEST)",
        "comment": "Ok",
        "type": "ClassWork"
    },
    null,
    null,
    {
        "id": "7",
        "studentId": "2",
        "teacherId": "3",
        "mark": "12",
        "date": "Mon Sep 24 2018 03:00:00 GMT+0300 (EEST)",
        "comment": "Eshkere",
        "type": "Test"
    },
    {
        "id": "8",
        "studentId": "0",
        "teacherId": "3",
        "mark": "12",
        "date": "Mon Sep 24 2018 03:00:00 GMT+0300 (EEST)",
        "comment": "Eshkere",
        "type": "Test"
    },
    {
        "id": "9",
        "studentId": "3",
        "teacherId": "3",
        "mark": "12",
        "date": "Mon Sep 24 2018 03:00:00 GMT+0300 (EEST)",
        "comment": "Eshkere",
        "type": "Test"
    },
    null,
    {
        "id": "11",
        "studentId": "0",
        "teacherId": "3",
        "mark": "12",
        "date": "Mon Sep 24 2018 03:00:00 GMT+0300 (EEST)",
        "comment": "Eshkere",
        "type": "Test"
    },
    {
        "id": "12",
        "studentId": "1",
        "teacherId": "3",
        "mark": "12",
        "date": "Mon Sep 24 2018 03:00:00 GMT+0300 (EEST)",
        "comment": "Eshkere",
        "type": "Test"
    },
    {
        "id": "13",
        "studentId": "2",
        "teacherId": "4",
        "mark": "11",
        "date": "Sun Oct 28 2018 20:04:49 GMT+0200 (EET)",
        "comment": "Keep good",
        "type": "test"
    },
    {
        "id": "14",
        "studentId": "0",
        "teacherId": "4",
        "mark": "9",
        "date": "Sun Oct 28 2018 20:13:22 GMT+0200 (EET)",
        "comment": "Almost correct",
        "type": "HomeWork"
    }
]